<?xml version="1.0" encoding="UTF-8"?>
<svg width="13px" height="14px" viewBox="0 0 13 14" version="1.1" xmlns="http://www.w3.org/2000/svg" xmlns:xlink="http://www.w3.org/1999/xlink">
    <!-- Generator: Sketch 51.3 (57544) - http://www.bohemiancoding.com/sketch -->
    <defs></defs>
    <g id="Produktdetalj" stroke="none" stroke-width="1" fill="none" fill-rule="evenodd">
        <g transform="translate(-1039.000000, -63.000000)" fill="#000000" id="nav">
            <g transform="translate(0.000000, 30.000000)">
                <g id="Group-2" transform="translate(901.000000, 28.000000)">
                    <g id="search" transform="translate(138.000000, 5.000000)">
                        <g id="np_search_637062_000000">
                            <path d="M4.71568627,0.646261538 C7.03516667,0.646261538 8.92156863,2.63870385 8.92156863,5.08856923 C8.92156863,7.53843462 7.03516667,9.53087692 4.71568627,9.53087692 C2.39620588,9.53087692 0.509803922,7.53843462 0.509803922,5.08856923 C0.509803922,2.63870385 2.39620588,0.646261538 4.71568627,0.646261538 Z M4.71568627,0.1078 C2.11594118,0.1078 0,2.34214615 0,5.08856923 C0,7.83445385 2.11594118,10.0693385 4.71568627,10.0693385 C7.31543137,10.0693385 9.43137255,7.83445385 9.43137255,5.08856923 C9.43137255,2.34214615 7.31543137,0.1078 4.71568627,0.1078 Z" id="Shape" fill-rule="nonzero"></path>
                            <polygon id="Shape" fill-rule="nonzero" points="7.63367647 8.65065385 7.99511471 8.27047308 12.923899 13.4967808 12.5624608 13.8769615"></polygon>
                        </g>
                    </g>
                </g>
            </g>
        </g>
    </g>
</svg>